{
  "project_info": {
    "project_number": "949612064",
    "firebase_url": "https://flyingco-3332c-default-rtdb.asia-southeast1.firebasedatabase.app",
    "project_id": "flyingco-3332c",
    "storage_bucket": "flyingco-3332c.appspot.com"
  },
  "client": [
    {
      "client_info": {
        "mobilesdk_app_id": "1:949612064:android:e7edb95e92620046365645",
        "android_client_info": {
          "package_name": "com.example.flyingco"
        }
      },
      "oauth_client": [
        {
          "client_id": "949612064-36jee5pmq6du9un6icj81b3dc195vqc1.apps.googleusercontent.com",
          "client_type": 3
        }
      ],
      "api_key": [
        {
          "current_key": "AIzaSyB1E1eIwrWj3zLuYUM_kh1nRC5RfN8CQhk"
        }
      ],
      "services": {
        "appinvite_service": {
          "other_platform_oauth_client": [
            {
              "client_id": "949612064-36jee5pmq6du9un6icj81b3dc195vqc1.apps.googleusercontent.com",
              "client_type": 3
            }
          ]
        }
      }
    }
  ],
  "configuration_version": "1"
}